C:\Users\Agustin\Documents\NetBeansProjects\peliscrud\tallercrud\tallercrud\src\main\java\root\services\AppConfig.java
C:\Users\Agustin\Documents\NetBeansProjects\peliscrud\tallercrud\tallercrud\src\main\java\root\persistence\entities\Producto.java
C:\Users\Agustin\Documents\NetBeansProjects\peliscrud\tallercrud\tallercrud\src\main\java\root\services\BotinesRest.java
